#!/bin/bash
#
#  i need df for that
#
#  cups 631; sync 8384 ; mqt 1883; nginx ...
#   enable smart all
#
#
echo ___________________ servising ____________________
function sayok(){
 echo [OK]
}

function saynok(){
 echo [FAIL]
}

function oknok(){
    if [ "$1" = "0" ];then
	sayok
    else
	saynok
    fi
}


function isins(){
    # is installed
    echo -ne  "i... pkg...: $1 \t checking ...\t"
    # for field #2 this is ok
    dpkg -l | awk '{print $2}' | grep -e  ^${1}$  > /dev/null
    oknok $?
}



function isact(){
    echo -ne "i... sysctl: $1 \t checking ...\t"
    systemctl is-active  $1 >/dev/null
    oknok $?
}


function is_ufw_active(){
  echo -ne "i... UFW active ?... \t ... "
  sudo   ufw status | grep -v inactive >/dev/null
  oknok $?
  # if not - activate
}



function disable_ipv6(){
    # sudo nano /etc/sysctl.conf
    echo "
net.ipv6.conf.all.disable_ipv6 = 1
net.ipv6.conf.default.disable_ipv6 = 1
net.ipv6.conf.lo.disable_ipv6 = 1
" >> /etc/sysctil.conf
#root@diskos:/etc/ssh#  sysctl -p
}

ipv6=`cat /proc/sys/net/ipv6/conf/all/disable_ipv6`
echo $ipv6
echo -ne "i... ipv6  disabled ... \t \t"
if [ "$ipv6" = "1" ]; then
    sayok
else
    saynok
fi


 isins  ssh
 isact ssh

 isins  psad
 isact psad


 isins  ufw
 isact ufw

 is_ufw_active


 isins  rkhunter
 #isact rkhunter

INSDIR=`pwd`

FNAME="50unattended-upgrades"
PAF="/etc/apt/apt.conf.d/$FNAME"
if [ -e $PAF ]; then
    echo -ne "i... $FNAME \t ... \t"
    diff -q ${INSDIR}/55_configfiles/$FNAME  $PAF > /dev/null
    oknok $?
else
    echo -ne "i... $FNAME \t \t "
    oknok 1
fi

FNAME="rkhunter.conf"
PAF="/etc/$FNAME"
if [ -e $PAF ]; then
    echo -ne "i... $PAF \t ... \t"
    diff -q ${INSDIR}/55_configfiles/$FNAME  $PAF > /dev/null
    oknok $?
else
    echo -ne "i... $PAF \t \t "
    oknok 1
fi



FNAME="rkhunter"
PAF="/etc/default/$FNAME"
if [ -e $PAF ]; then
    echo -ne "i... $PAF \t ... \t"
    diff -q ${INSDIR}/55_configfiles/$FNAME  $PAF > /dev/null
    oknok $?
else
    echo -ne "i... $PAF \t \t "
    oknok 1
fi



#cp   ./55_configfiles/rkhunter.conf  /etc/
echo ......... I need to activate UFW and then PSAD

echo i... stop.
